[gd_scene load_steps=4 format=2]

[ext_resource path="res://General/ActiveGameData.gd" type="Script" id=1]
[ext_resource path="res://City/CompanyNames.tscn" type="PackedScene" id=2]
[ext_resource path="res://General/MusicPlayer.gd" type="Script" id=3]

[node name="ActiveGameData" type="Node"]
script = ExtResource( 1 )

[node name="CompanyNames" parent="." instance=ExtResource( 2 )]

[node name="MusicPlayer" type="AudioStreamPlayer" parent="."]
script = ExtResource( 3 )
