[gd_scene load_steps=3 format=2]

[ext_resource path="res://City/CourierLocator.gd" type="Script" id=1]
[ext_resource path="res://SFX/locate_ping.wav" type="AudioStream" id=2]

[node name="CourierLocator" type="Node2D"]
script = ExtResource( 1 )

[node name="Timer" type="Timer" parent="."]
wait_time = 2.0
one_shot = true

[node name="AudioStreamPlayer" type="AudioStreamPlayer" parent="."]
stream = ExtResource( 2 )
[connection signal="timeout" from="Timer" to="." method="OnTimerTimeout"]
