[gd_scene load_steps=3 format=2]

[ext_resource path="res://JobWorldItem.gd" type="Script" id=1]
[ext_resource path="res://Jobs/jobWorldItemIcon.png" type="Texture" id=2]

[node name="JobWorldItem" type="Node2D"]
script = ExtResource( 1 )

[node name="jobWorldItemIcon" type="Sprite" parent="."]
position = Vector2( 0, -39.505 )
texture = ExtResource( 2 )

[node name="Polygon2D" type="Polygon2D" parent="."]
scale = Vector2( 17.84, 17.84 )
polygon = PoolVector2Array( 0.00756264, 0.132205, 0.382139, -2.37278, 1.64634, -3.16875, 0.0309734, -4.47977, -1.72486, -3.16875, -0.437247, -2.4196 )

[node name="Label" type="Label" parent="."]
margin_left = -19.6889
margin_top = -96.7759
margin_right = 20.3111
margin_bottom = -82.7759
__meta__ = {
"_edit_use_anchors_": false
}
