[gd_scene load_steps=2 format=2]

[ext_resource path="res://Courier/AStarTester.gd" type="Script" id=1]

[node name="AStarTester" type="Node2D"]
script = ExtResource( 1 )

[node name="Polygon2D" type="Polygon2D" parent="."]
position = Vector2( 0, -21.7336 )
scale = Vector2( 10.6, 10.6 )
color = Color( 0.196078, 0.47451, 0.137255, 1 )
polygon = PoolVector2Array( -0.128922, 2.67296, 3.23846, 0.0071106, 0.0113869, -0.975044, 1.83539, -2.37812, 0.0113869, -3.36028, -2.37384, -1.9572, -1.11108, -1.25566, -3.07539, -0.413813 )
