[gd_scene load_steps=2 format=2]

[ext_resource path="res://Courier/CourierBuilder.gd" type="Script" id=1]

[node name="CourierBuilder" type="Control"]
margin_right = 40.0
margin_bottom = 40.0
script = ExtResource( 1 )
